sv xpm --include "../../../ipstatic" \
"D:/devtools/Vivado/2019.2/data/ip/xpm/xpm_cdc/hdl/xpm_cdc.sv" \

verilog xil_defaultlib --include "../../../ipstatic" \
"../../../ip/clk_wiz_0/clk_wiz_0_clk_wiz.v" \
"../../../ip/clk_wiz_0/clk_wiz_0.v" \

verilog xil_defaultlib "glbl.v"

nosort
